{
  "WORK_OUT_FOLDER" : "./src/",
  "STYLE_WATCH_PATH" : "./src/scss/**/*.scss",
  "STYLE_SRC_PATH" : "./src/scss/style.scss",
  "JS_WATCH_PATH" : "./src/js/**/*.js",
  "JS_SRC_PATH" : "./src/js/main.js",
  "HTML_WATCH_PATH" : "./src/**/*.html",
  "PROD_FOLDER" : "./dist/"
}
